<?xml version="1.0" encoding="UTF-8" standalone="no"?><svg xmlns="http://www.w3.org/2000/svg" xmlns:xlink="http://www.w3.org/1999/xlink" contentScriptType="application/ecmascript" contentStyleType="text/css" height="290px" preserveAspectRatio="none" style="width:248px;height:290px;" version="1.1" viewBox="0 0 248 290" width="248px" zoomAndPan="magnify"><defs><filter height="300%" id="fi9ty4m4ai76j" width="300%" x="-1" y="-1"><feGaussianBlur result="blurOut" stdDeviation="2.0"/><feColorMatrix in="blurOut" result="blurOut2" type="matrix" values="0 0 0 0 0 0 0 0 0 0 0 0 0 0 0 0 0 0 .4 0"/><feOffset dx="4.0" dy="4.0" in="blurOut2" result="blurOut3"/><feBlend in="SourceGraphic" in2="blurOut3" mode="normal"/></filter></defs><g><!--MD5=[aa0c2778fb5f96eb4f6c19897dbd02c6]
class person--><rect fill="#FEFECE" filter="url(#fi9ty4m4ai76j)" height="48" id="person" style="stroke: #A80036; stroke-width: 1.5;" width="76" x="7" y="115"/><ellipse cx="22" cy="131" fill="#ADD1B2" rx="11" ry="11" style="stroke: #A80036; stroke-width: 1.0;"/><path d="M24.9688,136.6406 Q24.3906,136.9375 23.75,137.0781 Q23.1094,137.2344 22.4063,137.2344 Q19.9063,137.2344 18.5781,135.5938 Q17.2656,133.9375 17.2656,130.8125 Q17.2656,127.6875 18.5781,126.0313 Q19.9063,124.375 22.4063,124.375 Q23.1094,124.375 23.75,124.5313 Q24.4063,124.6875 24.9688,124.9844 L24.9688,127.7031 Q24.3438,127.125 23.75,126.8594 Q23.1563,126.5781 22.5313,126.5781 Q21.1875,126.5781 20.5,127.6563 Q19.8125,128.7188 19.8125,130.8125 Q19.8125,132.9063 20.5,133.9844 Q21.1875,135.0469 22.5313,135.0469 Q23.1563,135.0469 23.75,134.7813 Q24.3438,134.5 24.9688,133.9219 L24.9688,136.6406 Z "/><text fill="#000000" font-family="sans-serif" font-size="12" lengthAdjust="spacingAndGlyphs" textLength="44" x="36" y="135.1543">person</text><line style="stroke: #A80036; stroke-width: 1.5;" x1="8" x2="82" y1="147" y2="147"/><line style="stroke: #A80036; stroke-width: 1.5;" x1="8" x2="82" y1="155" y2="155"/><!--MD5=[3e91a4b4113ea64e939288529d461126]
class room--><rect fill="#FEFECE" filter="url(#fi9ty4m4ai76j)" height="48" id="room" style="stroke: #A80036; stroke-width: 1.5;" width="64" x="157" y="115"/><ellipse cx="172" cy="131" fill="#ADD1B2" rx="11" ry="11" style="stroke: #A80036; stroke-width: 1.0;"/><path d="M174.9688,136.6406 Q174.3906,136.9375 173.75,137.0781 Q173.1094,137.2344 172.4063,137.2344 Q169.9063,137.2344 168.5781,135.5938 Q167.2656,133.9375 167.2656,130.8125 Q167.2656,127.6875 168.5781,126.0313 Q169.9063,124.375 172.4063,124.375 Q173.1094,124.375 173.75,124.5313 Q174.4063,124.6875 174.9688,124.9844 L174.9688,127.7031 Q174.3438,127.125 173.75,126.8594 Q173.1563,126.5781 172.5313,126.5781 Q171.1875,126.5781 170.5,127.6563 Q169.8125,128.7188 169.8125,130.8125 Q169.8125,132.9063 170.5,133.9844 Q171.1875,135.0469 172.5313,135.0469 Q173.1563,135.0469 173.75,134.7813 Q174.3438,134.5 174.9688,133.9219 L174.9688,136.6406 Z "/><text fill="#000000" font-family="sans-serif" font-size="12" lengthAdjust="spacingAndGlyphs" textLength="32" x="186" y="135.1543">room</text><line style="stroke: #A80036; stroke-width: 1.5;" x1="158" x2="220" y1="147" y2="147"/><line style="stroke: #A80036; stroke-width: 1.5;" x1="158" x2="220" y1="155" y2="155"/><!--MD5=[a8a52bb373af1ed67e2610d411e32aaa]
class reservation--><rect fill="#FEFECE" filter="url(#fi9ty4m4ai76j)" height="48" id="reservation" style="stroke: #A80036; stroke-width: 1.5;" width="103" x="68.5" y="223"/><ellipse cx="83.5" cy="239" fill="#ADD1B2" rx="11" ry="11" style="stroke: #A80036; stroke-width: 1.0;"/><path d="M86.4688,244.6406 Q85.8906,244.9375 85.25,245.0781 Q84.6094,245.2344 83.9063,245.2344 Q81.4063,245.2344 80.0781,243.5938 Q78.7656,241.9375 78.7656,238.8125 Q78.7656,235.6875 80.0781,234.0313 Q81.4063,232.375 83.9063,232.375 Q84.6094,232.375 85.25,232.5313 Q85.9063,232.6875 86.4688,232.9844 L86.4688,235.7031 Q85.8438,235.125 85.25,234.8594 Q84.6563,234.5781 84.0313,234.5781 Q82.6875,234.5781 82,235.6563 Q81.3125,236.7188 81.3125,238.8125 Q81.3125,240.9063 82,241.9844 Q82.6875,243.0469 84.0313,243.0469 Q84.6563,243.0469 85.25,242.7813 Q85.8438,242.5 86.4688,241.9219 L86.4688,244.6406 Z "/><text fill="#000000" font-family="sans-serif" font-size="12" lengthAdjust="spacingAndGlyphs" textLength="71" x="97.5" y="243.1543">reservation</text><line style="stroke: #A80036; stroke-width: 1.5;" x1="69.5" x2="170.5" y1="255" y2="255"/><line style="stroke: #A80036; stroke-width: 1.5;" x1="69.5" x2="170.5" y1="263" y2="263"/><!--MD5=[aec929816a707d505db147934dc4698a]
class building--><rect fill="#FEFECE" filter="url(#fi9ty4m4ai76j)" height="48" id="building" style="stroke: #A80036; stroke-width: 1.5;" width="81" x="148.5" y="7"/><ellipse cx="163.5" cy="23" fill="#ADD1B2" rx="11" ry="11" style="stroke: #A80036; stroke-width: 1.0;"/><path d="M166.4688,28.6406 Q165.8906,28.9375 165.25,29.0781 Q164.6094,29.2344 163.9063,29.2344 Q161.4063,29.2344 160.0781,27.5938 Q158.7656,25.9375 158.7656,22.8125 Q158.7656,19.6875 160.0781,18.0313 Q161.4063,16.375 163.9063,16.375 Q164.6094,16.375 165.25,16.5313 Q165.9063,16.6875 166.4688,16.9844 L166.4688,19.7031 Q165.8438,19.125 165.25,18.8594 Q164.6563,18.5781 164.0313,18.5781 Q162.6875,18.5781 162,19.6563 Q161.3125,20.7188 161.3125,22.8125 Q161.3125,24.9063 162,25.9844 Q162.6875,27.0469 164.0313,27.0469 Q164.6563,27.0469 165.25,26.7813 Q165.8438,26.5 166.4688,25.9219 L166.4688,28.6406 Z "/><text fill="#000000" font-family="sans-serif" font-size="12" lengthAdjust="spacingAndGlyphs" textLength="49" x="177.5" y="27.1543">building</text><line style="stroke: #A80036; stroke-width: 1.5;" x1="149.5" x2="228.5" y1="39" y2="39"/><line style="stroke: #A80036; stroke-width: 1.5;" x1="149.5" x2="228.5" y1="47" y2="47"/><ellipse cx="120" cy="139" fill="#000000" rx="2" ry="2" style="stroke: none; stroke-width: 1.0;"/><!--MD5=[0c04f64b2eec9144f518ceddc9883a40]
reverse link person to apoint7--><path d="M96.17,139 C103.44,139 110.71,139 117.98,139 " fill="none" id="person&lt;-apoint7" style="stroke: #A80036; stroke-width: 1.0;"/><polygon fill="#FFFFFF" points="83.09,139,89.09,143,95.09,139,89.09,135,83.09,139" style="stroke: #A80036; stroke-width: 1.0;"/><text fill="#000000" font-family="sans-serif" font-size="13" lengthAdjust="spacingAndGlyphs" textLength="7" x="91.0181" y="134.6499">*</text><!--MD5=[e6734f94081e3f737e601be6fd9f3bb7]
link apoint7 to room--><path d="M122.16,139 C133.73,139 145.31,139 156.88,139 " fill="none" id="apoint7-room" style="stroke: #A80036; stroke-width: 1.0;"/><text fill="#000000" font-family="sans-serif" font-size="13" lengthAdjust="spacingAndGlyphs" textLength="7" x="142.0881" y="134.4408">*</text><!--MD5=[72f11ec92bb98f18a87d82e87ded3fb1]
link apoint7 to reservation--><path d="M120,141.19 C120,149.06 120,194.16 120,222.57 " fill="none" id="apoint7-reservation" style="stroke: #A80036; stroke-width: 1.0; stroke-dasharray: 7.0,7.0;"/><!--MD5=[5c8653c6ca84f7fed3dc38e9398f13ff]
reverse link building to room--><path d="M189,68.34 C189,83.68 189,101.1 189,114.68 " fill="none" id="building&lt;-room" style="stroke: #A80036; stroke-width: 1.0;"/><polygon fill="#A80036" points="189,55,185,61,189,67,193,61,189,55" style="stroke: #A80036; stroke-width: 1.0;"/><text fill="#000000" font-family="sans-serif" font-size="13" lengthAdjust="spacingAndGlyphs" textLength="8" x="179.975" y="75.1558">1</text><text fill="#000000" font-family="sans-serif" font-size="13" lengthAdjust="spacingAndGlyphs" textLength="23" x="163.1969" y="104.007">1..*</text><!--MD5=[a51cfc4127c168ef2938ad930e7a5510]
@startuml
class person
class room
class reservation
class building
person "*" o- "*" room
(person,room) .. reservation
building "1" *- - "1..*" room
@enduml

PlantUML version 1.2020.15(Sun Jun 28 04:39:45 PDT 2020)
(GPL source distribution)
Java Runtime: OpenJDK Runtime Environment
JVM: OpenJDK 64-Bit Server VM
Default Encoding: UTF-8
Language: en
Country: US
--></g></svg>