@startuml
class person {
  +first_name
  +last_name
}

class address {
  +street
}

class phone {
  +phone_number
}

phone "1" <-o "*" person: home_phone
person "*" o-> "1" address: mailing_address
@enduml
